{
  "request": {
    "method": "GET",
    "url": "/people",
    "headers" : {
     "Authorization" : {
       "contains" : "I am a good token"
       }
    }
   },
  "response": {
    "status": 200,
    "body": "[{\"Id\":1,\"FirstName\":\"Roger\",\"LastName\":\"Federer\",\"DateOfBirth\":\"08/08/81\"}]",
    "headers": {
      "Content-Type": "application/json"
    }
  }
}